1 Rastreio de contatos | Manual de R para Epidemiologistas
…
Com a estrutura de dados Go.Data, o conjunto de dados relationships contém as idades de ambos os casos e contatos, para que você pudesse
utilizar esse conjunto de dados e criar uma pirâmide de idades mostrando as diferenças entre esses dois grupos de pessoas. A base relationships será alterada para transformar as colunas numéricas de idade em categorias, ou seja, faixas-etárias (veja a página [Dados de limpeza e funções centrais]). Também pivotamos a base de dados de forma mais longa, para facilitar a criaçãodo gráfico com ggplot2 (ver [Pivotando dados]).

relation_age <- relationships %>% 
  select(source_age, target_age) %>% 
  transmute(                              # transmute é como a função mutate(), mas remove todas as outras colunas não mencionadas
    source_age_class = epikit::age_categories(source_age, breakers = seq(0, 80, 5)),
    target_age_class = epikit::age_categories(target_age, breakers = seq(0, 80, 5)),
    ) %>% 
  pivot_longer(cols = contains("class"), names_to = "category", values_to = "age_class")# pivotação longa

relation_age

## # A tibble: 200 × 2
##    category         age_class
##    <chr>            <fct>    
##  1 source_age_class 80+      
##  2 target_age_class 15-19    
##  3 source_age_class <NA>     
##  4 target_age_class 50-54    
##  5 source_age_class <NA>     
##  6 target_age_class 20-24    
##  7 source_age_class 30-34    
##  8 target_age_class 45-49    
##  9 source_age_class 40-44    
## 10 target_age_class 30-34    
## # … with 190 more rows
…
Dependendo de sua estrutura de dados, isto pode ser avaliado com um conjunto de dados que contém todos os casos e contatos. Nos conjuntos de
dados Go.Data, os links entre os casos (“fontes”) e os contatos (“alvos”) é armazenado no conjunto de dados relationships.

Neste conjunto de dados, cada linha é um contato, e o caso da fonte é listado em uma linha. Não há contatos que tenham relações com múltiplos
casos, mas se isso existir, você pode precisar computá-los antes de criar o gráfico.

Começamos contando o número de linhas (contatos) por caso de origem. Isto é salvo como um data frame.

contacts_per_case <- relationships %>% 
  count(source_visualid)

contacts_per_case

## # A tibble: 23 × 2
##    source_visualid     n
##    <chr>           <int>
##  1 CASE-2020-0001     13
##  2 CASE-2020-0002      5
##  3 CASE-2020-0003      2
##  4 CASE-2020-0004      4
##  5 CASE-2020-0005      5
##  6 CASE-2020-0006      3
##  7 CASE-2020-0008      3
##  8 CASE-2020-0009      3
##  9 CASE-2020-0010      3
## 10 CASE-2020-0012      3
## # … with 13 more rows
…
