8 Limpeza de dados e principais funções | Manual de R para Epidemiologistas
…
8.12 Cálculo por linha

Se você quiser realizar um cálculo dentro de uma linha, você pode utilizar rowwise() a partir de dplyr. Veja esta vinheta online em cálculos em linha.

Por exemplo, este código se aplica rowwise() e então cria uma nova coluna que soma o número das colunas de sintomas especificados que têm o valor “yes” (sim), para cada linha da lista de linhas. As colunas são especificadas dentro de sum() pelo nome dentro de um vetor c(). A coluna rowwise() é essencialmente um tipo especial de group_by(), portanto é melhor utilizar ungroup() quando você terminar (página em Agrupar dados).

linelist %>%
  rowwise() %>%
  mutate(num_symptoms = sum(c(fever, chills, cough, aches, vomit) == "yes")) %>% 
  ungroup() %>% 
  select(fever, chills, cough, aches, vomit, num_symptoms) # para mostrar

## # A tibble: 5,888 × 6
##    fever chills cough aches vomit num_symptoms
##    <chr> <chr>  <chr> <chr> <chr>        <int>
##  1 no    no     yes   no    yes              2
##  2 <NA>  <NA>   <NA>  <NA>  <NA>            NA
##  3 <NA>  <NA>   <NA>  <NA>  <NA>            NA
##  4 no    no     no    no    no               0
##  5 no    no     yes   no    yes              2
##  6 no    no     yes   no    yes              2
##  7 <NA>  <NA>   <NA>  <NA>  <NA>            NA
##  8 no    no     yes   no    yes              2
##  9 no    no     yes   no    yes              2
## 10 no    no     yes   no    no               1
## # ℹ 5,878 more rows
…
Coloque o critério de especificação de coluna dentro da função dplyr c_across(). Isto porque c_across (documentação) é projetado para trabalhar com rowwise() especificamente. Por exemplo, o seguinte código:

Aplica-se rowwise() assim a seguinte operação (sum()) é aplicada dentro de cada linha (não somando colunas inteiras)

Cria nova coluna num_NA_dates, definida para cada linha como o número de colunas (com nome contendo “data”) para as quais is.na() avaliadas para VERDADEIRO (estão faltando dados).

grupo()ungroup() para remover os efeitos de rowwise() para as etapas subseqüentes.

linelist %>%
  rowwise() %>%
  mutate(num_NA_dates = sum(is.na(c_across(contains("date"))))) %>% 
  ungroup() %>% 
  select(num_NA_dates, contains("date")) # para mostrar

## # A tibble: 5,888 × 5
##    num_NA_dates date_infection date_onset date_hospitalisation date_outcome
##           <int> <date>         <date>     <date>               <date>      
##  1            1 2014-05-08     2014-05-13 2014-05-15           NA          
##  2            1 NA             2014-05-13 2014-05-14           2014-05-18  
##  3            1 NA             2014-05-16 2014-05-18           2014-05-30  
##  4            1 2014-05-04     2014-05-18 2014-05-20           NA          
##  5            0 2014-05-18     2014-05-21 2014-05-22           2014-05-29  
##  6            0 2014-05-03     2014-05-22 2014-05-23           2014-05-24  
##  7            0 2014-05-22     2014-05-27 2014-05-29           2014-06-01  
##  8            0 2014-05-28     2014-06-02 2014-06-03           2014-06-07  
##  9            1 NA             2014-06-05 2014-06-06           2014-06-18  
## 10            1 NA             2014-06-05 2014-06-07           2014-06-09  
## # ℹ 5,878 more rows

Você também poderia fornecer outras funções, tais como max() para obter a data mais recente ou mais recente para cada linha:

linelist %>%
  rowwise() %>%
  mutate(latest_date = max(c_across(contains("date")), na.rm=T)) %>% 
  ungroup() %>% 
  select(latest_date, contains("date"))  # para mostrar 

## # A tibble: 5,888 × 5
##    latest_date date_infection date_onset date_hospitalisation date_outcome
##    <date>      <date>         <date>     <date>               <date>      
##  1 2014-05-15  2014-05-08     2014-05-13 2014-05-15           NA          
##  2 2014-05-18  NA             2014-05-13 2014-05-14           2014-05-18  
##  3 2014-05-30  NA             2014-05-16 2014-05-18           2014-05-30  
##  4 2014-05-20  2014-05-04     2014-05-18 2014-05-20           NA          
##  5 2014-05-29  2014-05-18     2014-05-21 2014-05-22           2014-05-29  
##  6 2014-05-24  2014-05-03     2014-05-22 2014-05-23           2014-05-24  
##  7 2014-06-01  2014-05-22     2014-05-27 2014-05-29           2014-06-01  
##  8 2014-06-07  2014-05-28     2014-06-02 2014-06-03           2014-06-07  
##  9 2014-06-18  NA             2014-06-05 2014-06-06           2014-06-18  
## 10 2014-06-09  NA             2014-06-05 2014-06-07           2014-06-09  
## # ℹ 5,878 more rows
…
