13 Agrupando dados | Manual de R para Epidemiologistas
…
A função group_by() de dplyr agrupa as linhas pelos valores únicos na coluna especificada para ela. Se várias colunas forem especificadas, as linhas são agrupadas pelas combinações únicas de valores através das colunas. Cada valor único (ou combinação de valores) constitui um grupo. Alterações subseqüentes no conjunto de dados ou cálculos podem então ser realizadas dentro do contexto de cada grupo.

Por exemplo, o comando abaixo toma a “linelist” e agrupa as linhas por valores únicos na coluna “outcome”, salvando a saída como uma nova tabela de dados (dataframe) chamada “ll_by_outcome”. A(s) coluna(s) de agrupamento são colocadas dentro dos parênteses da função group_by()

ll_by_outcome <- linelist %>% 
  group_by(outcome)

Note que não há nenhuma mudança perceptível no conjunto de dados após executar group_by(), até outra função do dplyr tal como mutate(), summarise(), ou arrange() ser aplicada no dataframe “grouped”.

Você pode, no entanto, “ver” os agrupamentos imprimindo o quadro de dados. Ao imprimir um quadro de dados agrupados, você verá que ele foi transformado em um objeto de classe [tibble (https://tibble.tidyverse.org/) que, quando impresso, mostra quais agrupamentos foram aplicados e quantos grupos existem - escritos logo acima da linha do cabeçalho.

# visualizar quais grupos estão ativvos
ll_by_outcome

## # A tibble: 5,888 × 30
## # Groups:   outcome [3]
##    case_id generation date_infection date_onset date_hospitalisation date_outcome
##    <chr>        <dbl> <date>         <date>     <date>               <date>      
##  1 5fe599           4 2014-05-08     2014-05-13 2014-05-15           NA          
##  2 8689b7           4 NA             2014-05-13 2014-05-14           2014-05-18  
##  3 11f8ea           2 NA             2014-05-16 2014-05-18           2014-05-30  
##  4 b8812a           3 2014-05-04     2014-05-18 2014-05-20           NA          
##  5 893f25           3 2014-05-18     2014-05-21 2014-05-22           2014-05-29  
##  6 be99c8           3 2014-05-03     2014-05-22 2014-05-23           2014-05-24  
##  7 07e3e8           4 2014-05-22     2014-05-27 2014-05-29           2014-06-01  
##  8 369449           4 2014-05-28     2014-06-02 2014-06-03           2014-06-07  
##  9 f393b4           4 NA             2014-06-05 2014-06-06           2014-06-18  
## 10 1389ca           4 NA             2014-06-05 2014-06-07           2014-06-09  
## # ℹ 5,878 more rows
## # ℹ 24 more variables: outcome <chr>, gender <chr>, age <dbl>, age_unit <chr>,
## #   age_years <dbl>, age_cat <fct>, age_cat5 <fct>, hospital <chr>, lon <dbl>,
## #   lat <dbl>, infector <chr>, source <chr>, wt_kg <dbl>, ht_cm <dbl>, ct_blood <dbl>,
## #   fever <chr>, chills <chr>, cough <chr>, aches <chr>, vomit <chr>, temp <dbl>,
## #   time_admission <chr>, bmi <dbl>, days_onset_hosp <dbl>
…
Adicionar contagens

Em contraste com count() e summarise(), você pode utilizar add_count() para adicionar uma nova coluna n com a contagem de linhas por grupo enquanto mantém todas as outras colunas do dataframe.

Isto significa que o número de contagem de um grupo, na nova coluna n, será impresso em cada linha do grupo. Para fins de demonstração, adicionamos esta coluna e depois reorganizamos as colunas para facilitar a visualização. Veja a seção abaixo em filtro no tamanho do grupo para outro exemplo.

linelist %>% 
  as_tibble() %>%                   # converte para "tibble" para melhro vizualização
  add_count(hospital) %>%           # adiciona coluna n com as contages por hospital 
  select(hospital, n, everything()) # re-organiza para o propósito desta demostração

## # A tibble: 5,888 × 31
##    hospital         n case_id generation date_infection date_onset date_hospitalisation
##    <chr>        <int> <chr>        <dbl> <date>         <date>     <date>              
##  1 Other          885 5fe599           4 2014-05-08     2014-05-13 2014-05-15          
##  2 Ausente       1469 8689b7           4 NA             2014-05-13 2014-05-14          
##  3 St. Mark's …   422 11f8ea           2 NA             2014-05-16 2014-05-18          
##  4 Port Hospit…  1762 b8812a           3 2014-05-04     2014-05-18 2014-05-20          
##  5 Military Ho…   896 893f25           3 2014-05-18     2014-05-21 2014-05-22          
##  6 Port Hospit…  1762 be99c8           3 2014-05-03     2014-05-22 2014-05-23          
##  7 Ausente       1469 07e3e8           4 2014-05-22     2014-05-27 2014-05-29          
##  8 Ausente       1469 369449           4 2014-05-28     2014-06-02 2014-06-03          
##  9 Ausente       1469 f393b4           4 NA             2014-06-05 2014-06-06          
## 10 Ausente       1469 1389ca           4 NA             2014-06-05 2014-06-07          
## # ℹ 5,878 more rows
## # ℹ 24 more variables: date_outcome <date>, outcome <chr>, gender <chr>, age <dbl>,
## #   age_unit <chr>, age_years <dbl>, age_cat <fct>, age_cat5 <fct>, lon <dbl>,
## #   lat <dbl>, infector <chr>, source <chr>, wt_kg <dbl>, ht_cm <dbl>, ct_blood <dbl>,
## #   fever <chr>, chills <chr>, cough <chr>, aches <chr>, vomit <chr>, temp <dbl>,
## #   time_admission <chr>, bmi <dbl>, days_onset_hosp <dbl>
…
Agrupar a lineliste por coluna “hospital”.

Organizar os registros da mais recente à mais antiga date_hospitalisation (data de hospitalização) em cada grupo hospitalar.

Divide para recuperar as 5 primeiras fileiras de cada hospital

linelist %>%
  group_by(hospital) %>%
  arrange(hospital, date_hospitalisation) %>%
  slice_head(n = 5) %>% 
  arrange(hospital) %>%                            # para visualizar
  select(case_id, hospital, date_hospitalisation)  # para visualizar

## # A tibble: 30 × 3
## # Groups:   hospital [6]
##    case_id hospital         date_hospitalisation
##    <chr>   <chr>            <date>              
##  1 6c286a  Ausente          2014-04-27          
##  2 49731d  Ausente          2014-05-02          
##  3 f1f60f  Ausente          2014-05-09          
##  4 8689b7  Ausente          2014-05-14          
##  5 6285c9  Ausente          2014-05-14          
##  6 20b688  Central Hospital 2014-05-06          
##  7 d58402  Central Hospital 2014-05-10          
##  8 b8f2fd  Central Hospital 2014-05-13          
##  9 acf422  Central Hospital 2014-05-28          
## 10 275cc7  Central Hospital 2014-05-28          
## # ℹ 20 more rows
…
Veja a página Eliminando duplicidades para meis exemplos e detalhes de slice().

Filtrar por tamanho do grupo

A função add_count() adiciona uma coluna n aos dados originais dando o número de linhas no grupo daquela linha.

Mostrado abaixo, add_count() é aplicado à coluna hospital, assim os valores na nova coluna n refletem o número de linhas no grupo hospitalar. Observe como os valores na coluna n são repetidos. No exemplo abaixo, o nome da coluna n poderia ser alterado utilizando name = dentro de add_count(). Para fins de demonstração, reorganizamos as colunas com select().

linelist %>% 
  as_tibble() %>% 
  add_count(hospital) %>%          # adiciona "número de linhas adimitidas no mesmo hospital que o dessa linha" 
  select(hospital, n, everything())

## # A tibble: 5,888 × 31
##    hospital         n case_id generation date_infection date_onset date_hospitalisation
##    <chr>        <int> <chr>        <dbl> <date>         <date>     <date>              
##  1 Other          885 5fe599           4 2014-05-08     2014-05-13 2014-05-15          
##  2 Ausente       1469 8689b7           4 NA             2014-05-13 2014-05-14          
##  3 St. Mark's …   422 11f8ea           2 NA             2014-05-16 2014-05-18          
##  4 Port Hospit…  1762 b8812a           3 2014-05-04     2014-05-18 2014-05-20          
##  5 Military Ho…   896 893f25           3 2014-05-18     2014-05-21 2014-05-22          
##  6 Port Hospit…  1762 be99c8           3 2014-05-03     2014-05-22 2014-05-23          
##  7 Ausente       1469 07e3e8           4 2014-05-22     2014-05-27 2014-05-29          
##  8 Ausente       1469 369449           4 2014-05-28     2014-06-02 2014-06-03          
##  9 Ausente       1469 f393b4           4 NA             2014-06-05 2014-06-06          
## 10 Ausente       1469 1389ca           4 NA             2014-06-05 2014-06-07          
## # ℹ 5,878 more rows
## # ℹ 24 more variables: date_outcome <date>, outcome <chr>, gender <chr>, age <dbl>,
## #   age_unit <chr>, age_years <dbl>, age_cat <fct>, age_cat5 <fct>, lon <dbl>,
## #   lat <dbl>, infector <chr>, source <chr>, wt_kg <dbl>, ht_cm <dbl>, ct_blood <dbl>,
## #   fever <chr>, chills <chr>, cough <chr>, aches <chr>, vomit <chr>, temp <dbl>,
## #   time_admission <chr>, bmi <dbl>, days_onset_hosp <dbl>
…
  # novas colunas
  mutate(
    # quantidades de dias média para admissão por hospital (arredondado para 1 decimal)
    group_delay_admit = round(mean(days_onset_hosp, na.rm=T), 1),
    
    # diferença entre o atraso daquela observação e o atraso medio do hospital (arredondado para 1 decimal)
    diff_to_group     = round(days_onset_hosp - group_delay_admit, 1)) %>%
  
  # seleciona alguma linhas apenas - para fim de demostração/visualização  
  select(case_id, hospital, days_onset_hosp, group_delay_admit, diff_to_group)

## # A tibble: 5,888 × 5
## # Groups:   hospital [6]
##    case_id hospital                     days_onset_hosp group_delay_admit diff_to_group
##    <chr>   <chr>                                  <dbl>             <dbl>         <dbl>
##  1 5fe599  Other                                      2               2             0  
##  2 8689b7  Ausente                                    1               2.1          -1.1
##  3 11f8ea  St. Mark's Maternity Hospit…               2               2.1          -0.1
##  4 b8812a  Port Hospital                              2               2.1          -0.1
##  5 893f25  Military Hospital                          1               2.1          -1.1
##  6 be99c8  Port Hospital                              1               2.1          -1.1
##  7 07e3e8  Ausente                                    2               2.1          -0.1
##  8 369449  Ausente                                    1               2.1          -1.1
##  9 f393b4  Ausente                                    1               2.1          -1.1
## 10 1389ca  Ausente                                    2               2.1          -0.1
## # ℹ 5,878 more rows
…
