41 Painéis com Shiny | Manual de R para Epidemiologistas
…
Primeiro, vamos carregar nossos dados. Como estamos trabalhando com um novo projeto e queremos torná-lo limpo, podemos criar um novo diretório chamado data e adicionar nossos dados de malária nele. Podemos executar o código abaixo em um script de teste que excluiremos ao limpar a estrutura de nosso aplicativo.

pacman::p_load("tidyverse", "lubridate")

# dados lidos
malaria_data <- rio::import(here::here("data", "malaria_facility_count_data.rds")) %>% 
  as_tibble()

print(malaria_data)

## # A tibble: 3,038 × 10
##    location_name data_date  submitted_date Province District `malaria_rdt_0-4`
##    <chr>         <date>     <date>         <chr>    <chr>                <int>
##  1 Facility 1    2020-08-11 2020-08-12     North    Spring                  11
##  2 Facility 2    2020-08-11 2020-08-12     North    Bolo                    11
##  3 Facility 3    2020-08-11 2020-08-12     North    Dingo                    8
##  4 Facility 4    2020-08-11 2020-08-12     North    Bolo                    16
##  5 Facility 5    2020-08-11 2020-08-12     North    Bolo                     9
##  6 Facility 6    2020-08-11 2020-08-12     North    Dingo                    3
##  7 Facility 6    2020-08-10 2020-08-12     North    Dingo                    4
##  8 Facility 5    2020-08-10 2020-08-12     North    Bolo                    15
##  9 Facility 5    2020-08-09 2020-08-12     North    Bolo                    11
## 10 Facility 5    2020-08-08 2020-08-12     North    Bolo                    19
## # ℹ 3,028 more rows
## # ℹ 4 more variables: `malaria_rdt_5-14` <int>, malaria_rdt_15 <int>,
## #   malaria_tot <int>, newid <int>

Será mais fácil trabalhar com esses dados se usarmos padrões de dados organizados, então também devemos transformar em um formato de dados mais longo, em que a faixa etária é uma coluna e os casos é outra coluna. Podemos fazer isso facilmente usando o que aprendemos na página Pivoteando dados.

malaria_data <- malaria_data%>%
  select (-newid)%>%
  pivot_longer(cols = starts_with("malaria_"), names_to = "age_group", values_to = "cases_reported")

print(malaria_data)

## # A tibble: 12,152 × 7
##    location_name data_date  submitted_date Province District age_group  cases_reported
##    <chr>         <date>     <date>         <chr>    <chr>    <chr>               <int>
##  1 Facility 1    2020-08-11 2020-08-12     North    Spring   malaria_r…             11
##  2 Facility 1    2020-08-11 2020-08-12     North    Spring   malaria_r…             12
##  3 Facility 1    2020-08-11 2020-08-12     North    Spring   malaria_r…             23
##  4 Facility 1    2020-08-11 2020-08-12     North    Spring   malaria_t…             46
##  5 Facility 2    2020-08-11 2020-08-12     North    Bolo     malaria_r…             11
##  6 Facility 2    2020-08-11 2020-08-12     North    Bolo     malaria_r…             10
##  7 Facility 2    2020-08-11 2020-08-12     North    Bolo     malaria_r…              5
##  8 Facility 2    2020-08-11 2020-08-12     North    Bolo     malaria_t…             26
##  9 Facility 3    2020-08-11 2020-08-12     North    Dingo    malaria_r…              8
## 10 Facility 3    2020-08-11 2020-08-12     North    Dingo    malaria_r…              5
## # ℹ 12,142 more rows
…
Com todas as instalações em nossos dados, não está muito claro quais instalações correspondem a quais distritos - e o usuário final também não saberá. Isso pode tornar o uso do aplicativo pouco intuitivo. Por esse motivo, devemos fazer com que as opções de instalação na IU mudem dinamicamente à medida que o usuário muda o distrito - para que uma filtre a outra! Uma vez que temos tantas variáveis que estamos usando nas opções, também podemos querer gerar algumas de nossas opções para a interface do usuário em nosso arquivo global.R _ a partir dos dados_. Por exemplo, podemos adicionar este fragmento de código a global.R depois de lermos nossos dados em:

## `summarise()` has grouped output by 'location_name'. You can override using the
## `.groups` argument.

Vamos dar uma olhada neles:

all_districts

## [1] "All"     "Spring"  "Bolo"    "Dingo"   "Barnard"

installation_list

## # A tibble: 65 × 2
##    location_name District
##    <chr>         <chr>   
##  1 Facility 1    Spring  
##  2 Facility 10   Bolo    
##  3 Facility 11   Spring  
##  4 Facility 12   Dingo   
##  5 Facility 13   Bolo    
##  6 Facility 14   Dingo   
##  7 Facility 15   Barnard 
##  8 Facility 16   Barnard 
##  9 Facility 17   Barnard 
## 10 Facility 18   Bolo    
## # ℹ 55 more rows
…
