37 Cadeias de Transmissão | Manual de R para Epidemiologistas
…
Ao examinarmos objetos do tipo epicontacts, podemos ver que a coluna case_id na linelist foi renomeada para id e as colunas case_id e infector nos contatos foram renomeadas para from e to. Isso garante a consistência nas operações de manipulação, visualização e análise subsequentes.

## visualiza o objeto epicontacts
epic

## 
## /// Epidemiological Contacts //
## 
##   // class: epicontacts
##   // 5,888 cases in linelist; 3,800 contacts; directed 
## 
##   // linelist
## 
## # A tibble: 5,888 × 30
##    id    generation date_infection date_onset date_hospitalisation date_outcome outcome
##    <chr>      <dbl> <date>         <date>     <date>               <date>       <chr>  
##  1 5fe5…          4 2014-05-08     2014-05-13 2014-05-15           NA           <NA>   
##  2 8689…          4 NA             2014-05-13 2014-05-14           2014-05-18   Recover
##  3 11f8…          2 NA             2014-05-16 2014-05-18           2014-05-30   Recover
##  4 b881…          3 2014-05-04     2014-05-18 2014-05-20           NA           <NA>   
##  5 893f…          3 2014-05-18     2014-05-21 2014-05-22           2014-05-29   Recover
##  6 be99…          3 2014-05-03     2014-05-22 2014-05-23           2014-05-24   Recover
##  7 07e3…          4 2014-05-22     2014-05-27 2014-05-29           2014-06-01   Recover
##  8 3694…          4 2014-05-28     2014-06-02 2014-06-03           2014-06-07   Death  
##  9 f393…          4 NA             2014-06-05 2014-06-06           2014-06-18   Recover
## 10 1389…          4 NA             2014-06-05 2014-06-07           2014-06-09   Death  
## # ℹ 5,878 more rows
## # ℹ 23 more variables: gender <chr>, age <dbl>, age_unit <chr>, age_years <dbl>,
## #   age_cat <fct>, age_cat5 <fct>, hospital <chr>, lon <dbl>, lat <dbl>,
## #   infector <chr>, source <chr>, wt_kg <dbl>, ht_cm <dbl>, ct_blood <dbl>,
## #   fever <chr>, chills <chr>, cough <chr>, aches <chr>, vomit <chr>, temp <dbl>,
## #   time_admission <chr>, bmi <dbl>, days_onset_hosp <dbl>
## 
##   // contacts
## 
## # A tibble: 3,800 × 4
##    from   to     location   duration
##    <chr>  <chr>  <chr>         <int>
##  1 f547d6 5fe599 Community        10
##  2 f90f5f b8812a Community         1
##  3 11f8ea 893f25 Nosocomial        3
##  4 aec8ec be99c8 Nosocomial        5
##  5 893f25 07e3e8 Community        10
##  6 133ee7 369449 Nosocomial        5
##  7 996f3a 2978ac Community         2
##  8 133ee7 57a565 Nosocomial       10
##  9 37a6f6 fc15ef Nosocomial        9
## 10 9f6884 2eaa9a Nosocomial        1
## # ℹ 3,790 more rows
…
## 
## /// Epidemiological Contacts //
## 
##   // class: epicontacts
##   // 69 cases in linelist; 1,909 contacts; directed 
## 
##   // linelist
## 
## # A tibble: 69 × 30
##    id    generation date_infection date_onset date_hospitalisation date_outcome outcome
##    <chr>      <dbl> <date>         <date>     <date>               <date>       <chr>  
##  1 5fe5…          4 2014-05-08     2014-05-13 2014-05-15           NA           <NA>   
##  2 893f…          3 2014-05-18     2014-05-21 2014-05-22           2014-05-29   Recover
##  3 2978…          4 2014-05-30     2014-06-06 2014-06-08           2014-06-15   Death  
##  4 57a5…          4 2014-05-28     2014-06-13 2014-06-15           NA           Death  
##  5 fc15…          6 2014-06-14     2014-06-16 2014-06-17           2014-07-09   Recover
##  6 99e8…          7 2014-06-24     2014-06-28 2014-06-29           2014-07-09   Recover
##  7 f327…          6 2014-06-14     2014-07-12 2014-07-13           2014-07-14   Death  
##  8 90e5…          5 2014-06-18     2014-07-13 2014-07-14           2014-07-16   <NA>   
##  9 a475…          5 2014-06-13     2014-07-17 2014-07-18           2014-07-26   Death  
## 10 da8e…          5 2014-06-20     2014-07-18 2014-07-20           2014-08-01   <NA>   
## # ℹ 59 more rows
## # ℹ 23 more variables: gender <chr>, age <dbl>, age_unit <chr>, age_years <dbl>,
## #   age_cat <fct>, age_cat5 <fct>, hospital <chr>, lon <dbl>, lat <dbl>,
## #   infector <chr>, source <chr>, wt_kg <dbl>, ht_cm <dbl>, ct_blood <dbl>,
## #   fever <chr>, chills <chr>, cough <chr>, aches <chr>, vomit <chr>, temp <dbl>,
## #   time_admission <chr>, bmi <dbl>, days_onset_hosp <dbl>
## 
##   // contacts
## 
## # A tibble: 1,909 × 4
##    from   to     location   duration
##    <chr>  <chr>  <chr>         <int>
##  1 11f8ea 893f25 Nosocomial        3
##  2 aec8ec be99c8 Nosocomial        5
##  3 133ee7 369449 Nosocomial        5
##  4 133ee7 57a565 Nosocomial       10
##  5 37a6f6 fc15ef Nosocomial        9
##  6 9f6884 2eaa9a Nosocomial        1
##  7 a75c7f 7f5a01 Nosocomial        6
##  8 b799eb bc2adf Nosocomial        8
##  9 ea3740 90e5fe Nosocomial        3
## 10 beb26e 959170 Nosocomial        1
## # ℹ 1,899 more rows
…
